@startuml
left to right direction
:Agent_de_Voyage:
:Client:
package Agence_de_Voyage{
    Agent_de_Voyage --> (Organiser Voyage)
    (Organiser Voyage) ..> (Réserver Chambre Hotel) : <<include>>
    (Organiser Voyage) ..> (Réserver un taxi) : <<include>>
    (Organiser Voyage) ..> (Réserver Billet) : <<include>>
    Client --> (Demander Facture)
    (Réserver Billet) <|-d- (Avion)
    (Réserver Billet) <|-d- (Train)
    (Organiser Voyage) <..(Etablir Facture) : <<extends>>
}
@enduml