@startuml
left to right direction
:Client:
package RetraitGAB {
    Client ----> (Retrait)
    Client --> (Depot)
    Client --> (Virement)
    Client --> (Consulter)
    (Retrait) ..> (Authentification) :<<include>>
    (Depot) ..> (Authentification) :<<include>>
    (Virement) ..> (Authentification) :<<include>>
    (Vérifier Solde) <.. (Retrait) :<<extends>>
    (Vérifier Solde) <.. (Virement) :<<extends>>
    (Consulter) <|-d- (web)
    (Consulter) <|-d- (Guichet)
    (Consulter) <|-d- (Relevé compt papier)
    (Consulter) .d.> (Authentification) :<<include>>
}
@enduml